%YAML 1.1
%TAG !u! tag:unity3d.com,2011:
--- !u!74 &7400000
AnimationClip:
  m_ObjectHideFlags: 0
  m_CorrespondingSourceObject: {fileID: 0}
  m_PrefabInstance: {fileID: 0}
  m_PrefabAsset: {fileID: 0}
  m_Name: Intro
  serializedVersion: 6
  m_Legacy: 0
  m_Compressed: 0
  m_UseHighQualityCurve: 1
  m_RotationCurves: []
  m_CompressedRotationCurves: []
  m_EulerCurves: []
  m_PositionCurves: []
  m_ScaleCurves: []
  m_FloatCurves: []
  m_PPtrCurves:
  - curve:
    - time: 0
      value: {fileID: 21300000, guid: 22543a1b5d0de2e4d8b8dde5b5da055a, type: 3}
    - time: 1.25
      value: {fileID: 21300000, guid: 1721666e061813c4aa232c501941be77, type: 3}
    - time: 2.5
      value: {fileID: 21300000, guid: 795fea26fb484b9498c1fcfc7496f1e0, type: 3}
    - time: 3.75
      value: {fileID: 21300000, guid: a5b82e3cd0f059044ab6580b9c9c38c8, type: 3}
    - time: 5
      value: {fileID: 21300000, guid: 559a5a529a3328f4288381cf70297bcf, type: 3}
    attribute: m_Sprite
    path: 
    classID: 212
    script: {fileID: 0}
  m_SampleRate: 12
  m_WrapMode: 0
  m_Bounds:
    m_Center: {x: 0, y: 0, z: 0}
    m_Extent: {x: 0, y: 0, z: 0}
  m_ClipBindingConstant:
    genericBindings:
    - serializedVersion: 2
      path: 0
      attribute: 0
      script: {fileID: 0}
      typeID: 212
      customType: 23
      isPPtrCurve: 1
    pptrCurveMapping:
    - {fileID: 21300000, guid: 22543a1b5d0de2e4d8b8dde5b5da055a, type: 3}
    - {fileID: 21300000, guid: 1721666e061813c4aa232c501941be77, type: 3}
    - {fileID: 21300000, guid: 795fea26fb484b9498c1fcfc7496f1e0, type: 3}
    - {fileID: 21300000, guid: a5b82e3cd0f059044ab6580b9c9c38c8, type: 3}
    - {fileID: 21300000, guid: 559a5a529a3328f4288381cf70297bcf, type: 3}
  m_AnimationClipSettings:
    serializedVersion: 2
    m_AdditiveReferencePoseClip: {fileID: 0}
    m_AdditiveReferencePoseTime: 0
    m_StartTime: 0
    m_StopTime: 5.0833335
    m_OrientationOffsetY: 0
    m_Level: 0
    m_CycleOffset: 0
    m_HasAdditiveReferencePose: 0
    m_LoopTime: 1
    m_LoopBlend: 0
    m_LoopBlendOrientation: 0
    m_LoopBlendPositionY: 0
    m_LoopBlendPositionXZ: 0
    m_KeepOriginalOrientation: 0
    m_KeepOriginalPositionY: 1
    m_KeepOriginalPositionXZ: 0
    m_HeightFromFeet: 0
    m_Mirror: 0
  m_EditorCurves: []
  m_EulerEditorCurves: []
  m_HasGenericRootTransform: 0
  m_HasMotionFloatCurves: 0
  m_Events: []
